test_pass_output.txt
VCD info: dumpfile alu.vcd opened for output.
Test Commence
Test SLT A:10000000000000000000000000000000 B:00000000000000000000000000000001 Passed, Expected Out:00000000000000000000000000000001, Got Out:00000000000000000000000000000001
Test SLT A:00000000000000000000000000000000 B:00000000000000000000000000000000 Passed, Expected Out:00000000000000000000000000000000, Got Out:00000000000000000000000000000000
Test XOR A:00000000000000000000000000000000 B:00000000000000000000000000000000 Passed, Expected Out:00000000000000000000000000000000 Got Out:00000000000000000000000000000000
Test XOR A:00000000000000000000000000000000 B:00000000000000000000000000000000 Passed, Produced Flags cout:0, ovf:0, zero:0
Test XOR A:00000000000000001111111111111111 B:00000000000000000000000000000000 Passed, Expected Out:00000000000000001111111111111111 Got Out:00000000000000001111111111111111
Test XOR A:00000000000000001111111111111111 B:00000000000000000000000000000000 Passed, Produced Flags cout:0, ovf:0, zero:0
Test XOR A:00000000000000000000000000000000 B:00000000000000001111111111111111 Passed, Expected Out:00000000000000001111111111111111 Got Out:00000000000000001111111111111111
Test XOR A:00000000000000000000000000000000 B:00000000000000001111111111111111 Passed, Produced Flags cout:0, ovf:0, zero:0
Test XOR A:00000000000000001111111111111111 B:00000000000000001111111111111111 Passed, Expected Out:00000000000000000000000000000000 Got Out:00000000000000000000000000000000
Test XOR A:00000000000000001111111111111111 B:00000000000000001111111111111111 Passed, Produced Flags cout:0, ovf:0, zero:0
Test AND A:00000000000000000000000000000000 B:00000000000000000000000000000000 Passed, Expected Out:00000000000000000000000000000000 Got Out:00000000000000000000000000000000
Test AND A:00000000000000000000000000000000 B:00000000000000000000000000000000 Passed, Produced Flags cout:0, ovf:0, zero:0
Test AND A:00000000000000001111111111111111 B:00000000000000000000000000000000 Passed, Expected Out:00000000000000000000000000000000 Got Out:00000000000000000000000000000000
Test AND A:00000000000000001111111111111111 B:00000000000000000000000000000000 Passed, Produced Flags cout:0, ovf:0, zero:0
Test AND A:00000000000000000000000000000000 B:00000000000000001111111111111111 Passed, Expected Out:00000000000000000000000000000000 Got Out:00000000000000000000000000000000
Test AND A:00000000000000000000000000000000 B:00000000000000001111111111111111 Passed, Produced Flags cout:0, ovf:0, zero:0
Test AND A:00000000000000001111111111111111 B:00000000000000001111111111111111 Passed, Expected Out:00000000000000001111111111111111 Got Out:00000000000000001111111111111111
Test AND A:00000000000000001111111111111111 B:00000000000000001111111111111111 Passed, Produced Flags cout:0, ovf:0, zero:0
Test NAND A:00000000000000000000000000000000 B:00000000000000000000000000000000 Passed, Expected Out:11111111111111111111111111111111 Got Out:11111111111111111111111111111111
Test NAND A:00000000000000000000000000000000 B:00000000000000000000000000000000 Passed, Produced Flags cout:0, ovf:0, zero:0
Test NAND A:00000000000000001111111111111111 B:00000000000000000000000000000000 Passed, Expected Out:11111111111111111111111111111111 Got Out:11111111111111111111111111111111
Test NAND A:00000000000000001111111111111111 B:00000000000000000000000000000000 Passed, Produced Flags cout:0, ovf:0, zero:0
Test NAND A:00000000000000000000000000000000 B:00000000000000001111111111111111 Passed, Expected Out:11111111111111111111111111111111 Got Out:11111111111111111111111111111111
Test NAND A:00000000000000000000000000000000 B:00000000000000001111111111111111 Passed, Produced Flags cout:0, ovf:0, zero:0
Test NAND A:00000000000000001111111111111111 B:00000000000000001111111111111111 Passed, Expected Out:11111111111111110000000000000000 Got Out:11111111111111110000000000000000
Test NAND A:00000000000000001111111111111111 B:00000000000000001111111111111111 Passed, Produced Flags cout:0, ovf:0, zero:0
Test NOR A:00000000000000000000000000000000 B:00000000000000000000000000000000 Passed, Expected Out:11111111111111111111111111111111 Got Out:11111111111111111111111111111111
Test NOR A:00000000000000000000000000000000 B:00000000000000000000000000000000 Passed, Produced Flags cout:0, ovf:0, zero:0
Test NOR A:00000000000000001111111111111111 B:00000000000000000000000000000000 Passed, Expected Out:11111111111111110000000000000000 Got Out:11111111111111110000000000000000
Test NOR A:00000000000000001111111111111111 B:00000000000000000000000000000000 Passed, Produced Flags cout:0, ovf:0, zero:0
Test NOR A:00000000000000000000000000000000 B:00000000000000001111111111111111 Passed, Expected Out:11111111111111110000000000000000 Got Out:11111111111111110000000000000000
Test NOR A:00000000000000000000000000000000 B:00000000000000001111111111111111 Passed, Produced Flags cout:0, ovf:0, zero:0
Test NOR A:00000000000000001111111111111111 B:00000000000000001111111111111111 Passed, Expected Out:11111111111111110000000000000000 Got Out:11111111111111110000000000000000
Test NOR A:00000000000000001111111111111111 B:00000000000000001111111111111111 Passed, Produced Flags cout:0, ovf:0, zero:0
Test OR A:00000000000000000000000000000000 B:00000000000000000000000000000000 Passed, Expected Out:00000000000000000000000000000000 Got Out:00000000000000000000000000000000
Test OR A:00000000000000000000000000000000 B:00000000000000000000000000000000 Passed, Produced Flags cout:0, ovf:0, zero:0
Test OR A:00000000000000001111111111111111 B:00000000000000000000000000000000 Passed, Expected Out:00000000000000001111111111111111 Got Out:00000000000000001111111111111111
Test OR A:00000000000000001111111111111111 B:00000000000000000000000000000000 Passed, Produced Flags cout:0, ovf:0, zero:0
Test OR A:00000000000000000000000000000000 B:00000000000000001111111111111111 Passed, Expected Out:00000000000000001111111111111111 Got Out:00000000000000001111111111111111
Test OR A:00000000000000000000000000000000 B:00000000000000001111111111111111 Passed, Produced Flags cout:0, ovf:0, zero:0
Test OR A:00000000000000001111111111111111 B:00000000000000001111111111111111 Passed, Expected Out:00000000000000001111111111111111 Got Out:00000000000000001111111111111111
Test OR A:00000000000000001111111111111111 B:00000000000000001111111111111111 Passed, Produced Flags cout:0, ovf:0, zero:0
Test ADD A:01111111111111111111111111111111 B:11111111111111111111111111111111 Passed, Expected Out:01111111111111111111111111111110 Got Out:01111111111111111111111111111110
Test ADD A:11111111111111111111111111111111 B:10000000000000000000000000000000 Passed, Expected Out:01111111111111111111111111111111 Got Out:01111111111111111111111111111111
Test ADD A:00000000000000000000000000000001 B:00000000000000000000000000000001 Passed, Expected Out:00000000000000000000000000000010 Got Out:00000000000000000000000000000010
Test ADD A:00000000000000000000000000000010 B:00000000000000000000000000000010 Passed, Expected Out:00000000000000000000000000000100 Got Out:00000000000000000000000000000100
Test ADD A:01000000000000000000000000000000 B:01000000000000000000000000000000 Passed, Expected Out:10000000000000000000000000000000 Got Out:10000000000000000000000000000000
Test ADD A:10000000000000000000000000000000 B:10000000000000000000000000000000 Passed, Expected Out:00000000000000000000000000000000 Got Out:00000000000000000000000000000000
Test ADD A:       5000 B:       5000 Passed, Expected Out:      10000 Got Out:     10000
Test ADD A:       5000 B:       5000 Passed, Expected cout:0 Got cout:0
Test ADD A:       5000 B:       5000 Passed, Expected ovf:0 Got ovf:0
Test ADD A:       5000 B:       5000 Passed, Expected zero:0 Got zero:0
Test ADD A:-2147483647 B: 2147483647 Passed, Expected Out:          0 Got Out:         0
Test ADD A:-2147483647 B: 2147483647 Passed, Expected cout:1 Got cout:1
Test ADD A:-2147483647 B: 2147483647 Passed, Expected ovf:0 Got ovf:0
Test ADD A:-2147483647 B: 2147483647 Passed, Expected zero:1 Got zero:1
Test ADD A:-1000000000 B:-2000000000 Passed, Expected Out: 1294967296 Got Out:1294967296
Test ADD A:-1000000000 B:-2000000000 Passed, Expected cout:1 Got cout:1
Test ADD A:-1000000000 B:-2000000000 Passed, Expected ovf:1 Got ovf:1
Test ADD A:-1000000000 B:-2000000000 Passed, Expected zero:0 Got zero:0
Test ADD A: -300000000 B: -100000000 Passed, Expected Out: -400000000 Got Out:3894967296
Test ADD A: -300000000 B: -100000000 Passed, Expected cout:1 Got cout:1
Test ADD A: -300000000 B: -100000000 Passed, Expected ovf:0 Got ovf:0
Test ADD A: -300000000 B: -100000000 Passed, Expected zero:0 Got zero:0
Test ADD A: 1500000000 B: 1000000000 Passed, Expected Out:-1794967296 Got Out:2500000000
Test ADD A: 1500000000 B: 1000000000 Passed, Expected cout:0 Got cout:0
Test ADD A: 1500000000 B: 1000000000 Passed, Expected ovf:1 Got ovf:1
Test ADD A: 1500000000 B: 1000000000 Passed, Expected zero:0 Got zero:0
Test SUB A:       5000 B:       5000 Passed, Expected Out:          0 Got Out:         0
Test SUB A:       5000 B:       5000 Passed, Expected cout:1 Got cout:1
Test SUB A:       5000 B:       5000 Passed, Expected ovf:0 Got ovf:0
Test SUB A:       5000 B:       5000 Passed, Expected zero:1 Got zero:1
Test SUB A:-2147483647 B: 2147483647 Passed, Expected Out:          2 Got Out:         2
Test SUB A:-2147483647 B: 2147483647 Passed, Expected cout:1 Got cout:1
Test SUB A:-2147483647 B: 2147483647 Passed, Expected ovf:1 Got ovf:1
Test SUB A:-2147483647 B: 2147483647 Passed, Expected zero:0 Got zero:0
Test SUB A:-1000000000 B:-2000000000 Passed, Expected Out: 1000000000 Got Out:1000000000
Test SUB A:-1000000000 B:-2000000000 Passed, Expected cout:1 Got cout:1
Test SUB A:-1000000000 B:-2000000000 Passed, Expected ovf:0 Got ovf:0
Test SUB A:-1000000000 B:-2000000000 Passed, Expected zero:0 Got zero:0
Test SUB A: -300000000 B: -100000000 Passed, Expected Out: -200000000 Got Out:4094967296
Test SUB A: -300000000 B: -100000000 Passed, Expected cout:0 Got cout:0
Test SUB A: -300000000 B: -100000000 Passed, Expected ovf:0 Got ovf:0
Test SUB A: -300000000 B: -100000000 Passed, Expected zero:0 Got zero:0
Test SUB A: 1500000000 B: 1000000000 Passed, Expected Out:  500000000 Got Out: 500000000
Test SUB A: 1500000000 B: 1000000000 Passed, Expected cout:1 Got cout:1
Test SUB A: 1500000000 B: 1000000000 Passed, Expected ovf:0 Got ovf:0
Test SUB A: 1500000000 B: 1000000000 Passed, Expected zero:0 Got zero:0
Test SLT Passed, cout:0 ovf:0 zero:0
Test SLT A:       5000 B:       5000 Passed, Expected Out: 0 Got Out:         0
Test SLT Passed, cout:0 ovf:0 zero:0
Test SLT A:-2147483647 B: 2147483647 Passed, Expected Out: 1 Got Out:         1
Test SLT Passed, cout:0 ovf:0 zero:0
Test SLT A:-1000000000 B:-2000000000 Passed, Expected Out: 0 Got Out:         0
Test SLT Passed, cout:0 ovf:0 zero:0
Test SLT A: -300000000 B: -100000000 Passed, Expected Out: 1 Got Out:         1
Test SLT Passed, cout:0 ovf:0 zero:0
Test SLT A: 1500000000 B: 1000000000 Passed, Expected Out: 0 Got Out:         0
Test SLT Passed, cout:0 ovf:0 zero:0
    99 Tests Passed
